<?xml version="1.0" encoding="UTF-8" standalone="no"?>
<!-- Created with Inkscape (http://www.inkscape.org/) -->

<svg
   xmlns:dc="http://purl.org/dc/elements/1.1/"
   xmlns:cc="http://creativecommons.org/ns#"
   xmlns:rdf="http://www.w3.org/1999/02/22-rdf-syntax-ns#"
   xmlns:svg="http://www.w3.org/2000/svg"
   xmlns="http://www.w3.org/2000/svg"
   xmlns:sodipodi="http://sodipodi.sourceforge.net/DTD/sodipodi-0.dtd"
   xmlns:inkscape="http://www.inkscape.org/namespaces/inkscape"
   width="512"
   height="512"
   viewBox="0 0 135.46666 135.46666"
   version="1.1"
   id="svg8"
   inkscape:version="0.92.4 (5da689c313, 2019-01-14)"
   sodipodi:docname="libreda_tetris_logo_square.svg">
  <title
     id="title992">Tetris Legalizer Logo</title>
  <defs
     id="defs2" />
  <sodipodi:namedview
     id="base"
     pagecolor="#ffffff"
     bordercolor="#666666"
     borderopacity="1.0"
     inkscape:pageopacity="0.0"
     inkscape:pageshadow="2"
     inkscape:zoom="0.35355339"
     inkscape:cx="269.45848"
     inkscape:cy="322.38536"
     inkscape:document-units="mm"
     inkscape:current-layer="layer1"
     showgrid="true"
     units="px"
     inkscape:window-width="1362"
     inkscape:window-height="729"
     inkscape:window-x="0"
     inkscape:window-y="18"
     inkscape:window-maximized="0"
     inkscape:snap-grids="true"
     inkscape:snap-to-guides="true"
     inkscape:snap-bbox="true"
     inkscape:bbox-paths="true"
     inkscape:snap-bbox-edge-midpoints="true"
     inkscape:bbox-nodes="true">
    <inkscape:grid
       type="xygrid"
       id="grid815"
       empspacing="4" />
  </sodipodi:namedview>
  <metadata
     id="metadata5">
    <rdf:RDF>
      <cc:Work
         rdf:about="">
        <dc:format>image/svg+xml</dc:format>
        <dc:type
           rdf:resource="http://purl.org/dc/dcmitype/StillImage" />
        <dc:title>Tetris Legalizer Logo</dc:title>
        <dc:creator>
          <cc:Agent>
            <dc:title>Thomas Kramer</dc:title>
          </cc:Agent>
        </dc:creator>
        <cc:license
           rdf:resource="" />
      </cc:Work>
    </rdf:RDF>
  </metadata>
  <g
     inkscape:label="Layer 1"
     inkscape:groupmode="layer"
     id="layer1"
     transform="translate(0,-161.53336)">
    <g
       id="g1076"
       transform="translate(-4.2333367,4.2333333)">
      <path
         inkscape:connector-curvature="0"
         id="path819"
         d="m 21.16667,174.23336 v 101.6 h 101.6"
         style="fill:none;stroke:#000000;stroke-width:6.3499999;stroke-linecap:square;stroke-linejoin:miter;stroke-miterlimit:4;stroke-dasharray:none;stroke-opacity:1" />
      <g
         id="g1062">
        <path
           style="fill:none;stroke:#000000;stroke-width:6.3499999;stroke-linecap:square;stroke-linejoin:miter;stroke-miterlimit:4;stroke-dasharray:none;stroke-opacity:1"
           d="m 21.16667,191.1667 h -12.7"
           id="path821"
           inkscape:connector-curvature="0" />
        <path
           inkscape:connector-curvature="0"
           id="path825"
           d="M 21.16667,208.10003 H 8.4666703"
           style="fill:none;stroke:#000000;stroke-width:6.3499999;stroke-linecap:square;stroke-linejoin:miter;stroke-miterlimit:4;stroke-dasharray:none;stroke-opacity:1" />
        <path
           style="fill:none;stroke:#000000;stroke-width:6.3499999;stroke-linecap:square;stroke-linejoin:miter;stroke-miterlimit:4;stroke-dasharray:none;stroke-opacity:1"
           d="M 21.16667,225.03336 H 8.4666706"
           id="path827"
           inkscape:connector-curvature="0" />
        <path
           inkscape:connector-curvature="0"
           id="path829"
           d="M 21.16667,241.9667 H 8.466671"
           style="fill:none;stroke:#000000;stroke-width:6.3499999;stroke-linecap:square;stroke-linejoin:miter;stroke-miterlimit:4;stroke-dasharray:none;stroke-opacity:1" />
        <path
           style="fill:none;stroke:#000000;stroke-width:6.3499999;stroke-linecap:square;stroke-linejoin:miter;stroke-miterlimit:4;stroke-dasharray:none;stroke-opacity:1"
           d="M 21.16667,258.90003 H 8.466671"
           id="path831"
           inkscape:connector-curvature="0" />
        <path
           inkscape:connector-curvature="0"
           id="path840"
           d="m 38.100008,275.83336 v 12.7"
           style="fill:none;stroke:#000000;stroke-width:6.3499999;stroke-linecap:square;stroke-linejoin:miter;stroke-miterlimit:4;stroke-dasharray:none;stroke-opacity:1" />
        <path
           style="fill:none;stroke:#000000;stroke-width:6.3499999;stroke-linecap:square;stroke-linejoin:miter;stroke-miterlimit:4;stroke-dasharray:none;stroke-opacity:1"
           d="m 55.033338,275.83336 v 12.7"
           id="path842"
           inkscape:connector-curvature="0" />
        <path
           inkscape:connector-curvature="0"
           id="path844"
           d="m 71.966668,275.83336 v 12.7"
           style="fill:none;stroke:#000000;stroke-width:6.3499999;stroke-linecap:square;stroke-linejoin:miter;stroke-miterlimit:4;stroke-dasharray:none;stroke-opacity:1" />
        <path
           style="fill:none;stroke:#000000;stroke-width:6.3499999;stroke-linecap:square;stroke-linejoin:miter;stroke-miterlimit:4;stroke-dasharray:none;stroke-opacity:1"
           d="m 88.900008,275.83336 v 12.7"
           id="path846"
           inkscape:connector-curvature="0" />
        <path
           inkscape:connector-curvature="0"
           id="path848"
           d="m 105.83334,275.83336 v 12.7"
           style="fill:none;stroke:#000000;stroke-width:6.3499999;stroke-linecap:square;stroke-linejoin:miter;stroke-miterlimit:4;stroke-dasharray:none;stroke-opacity:1" />
      </g>
    </g>
    <rect
       style="opacity:1;fill:#000000;fill-opacity:1;stroke:none;stroke-width:6.90449858;stroke-linecap:round;stroke-linejoin:miter;stroke-miterlimit:4;stroke-dasharray:none;stroke-opacity:1"
       id="rect1238"
       width="104.775"
       height="104.775"
       x="16.933332"
       y="175.29169" />
    <path
       style="fill:#0585ff;fill-opacity:1;stroke:none;stroke-width:0.26458332px;stroke-linecap:butt;stroke-linejoin:miter;stroke-opacity:1;opacity:0"
       d="m 25.400004,174.23336 v 97.36667 h 97.366666 v -21.16667 h -76.2 v -76.2 z"
       id="path894"
       inkscape:connector-curvature="0"
       sodipodi:nodetypes="ccccccc" />
    <path
       sodipodi:nodetypes="ccccccc"
       inkscape:connector-curvature="0"
       id="path904"
       d="m 52.916667,172.11669 v 71.96667 H 124.88333 V 222.91669 H 74.083333 v -50.8 z"
       style="fill:#0585ff;fill-opacity:0.74901961;stroke:none;stroke-width:0.26458332px;stroke-linecap:butt;stroke-linejoin:miter;stroke-opacity:1;opacity:0" />
    <path
       sodipodi:nodetypes="ccccc"
       inkscape:connector-curvature="0"
       id="path908"
       d="m 107.95,167.88336 v 21.16667 h 21.16667 v -21.16667 z"
       style="fill:#0585ff;fill-opacity:0.6681416;stroke:none;stroke-width:0.26458332px;stroke-linecap:butt;stroke-linejoin:miter;stroke-opacity:1" />
    <g
       id="g1027"
       transform="matrix(0,1,1,0,-152.00836,207.0417)"
       style="fill:#05ff24;fill-opacity:1">
      <rect
         y="195.40002"
         x="33.866665"
         height="16.933332"
         width="16.933332"
         id="rect1013"
         style="opacity:1;fill:#05ff24;fill-opacity:1;stroke:none;stroke-width:4.0999999;stroke-linecap:round;stroke-linejoin:miter;stroke-miterlimit:4;stroke-dasharray:none;stroke-opacity:1" />
      <rect
         style="opacity:1;fill:#05ff24;fill-opacity:1;stroke:none;stroke-width:4.0999999;stroke-linecap:round;stroke-linejoin:miter;stroke-miterlimit:4;stroke-dasharray:none;stroke-opacity:1"
         id="rect1015"
         width="16.933332"
         height="16.933332"
         x="33.866669"
         y="213.39169" />
      <rect
         y="213.39169"
         x="51.858334"
         height="16.933332"
         width="16.933332"
         id="rect1017"
         style="opacity:1;fill:#05ff24;fill-opacity:1;stroke:none;stroke-width:4.0999999;stroke-linecap:round;stroke-linejoin:miter;stroke-miterlimit:4;stroke-dasharray:none;stroke-opacity:1" />
      <rect
         style="opacity:1;fill:#05ff24;fill-opacity:1;stroke:none;stroke-width:4.0999999;stroke-linecap:round;stroke-linejoin:miter;stroke-miterlimit:4;stroke-dasharray:none;stroke-opacity:1"
         id="rect1019"
         width="16.933332"
         height="16.933332"
         x="51.858334"
         y="231.38336" />
    </g>
    <g
       id="g1041"
       style="fill:#ffd305;fill-opacity:1">
      <rect
         y="258.90002"
         x="25.400002"
         height="16.933332"
         width="16.933332"
         id="rect1021"
         style="opacity:1;fill:#ffd305;fill-opacity:1;stroke:none;stroke-width:4.0999999;stroke-linecap:round;stroke-linejoin:miter;stroke-miterlimit:4;stroke-dasharray:none;stroke-opacity:1" />
      <rect
         style="opacity:1;fill:#ffd305;fill-opacity:1;stroke:none;stroke-width:4.0999999;stroke-linecap:round;stroke-linejoin:miter;stroke-miterlimit:4;stroke-dasharray:none;stroke-opacity:1"
         id="rect1029"
         width="16.933332"
         height="16.933332"
         x="25.4"
         y="240.90836" />
      <rect
         y="222.91669"
         x="25.4"
         height="16.933332"
         width="16.933332"
         id="rect1031"
         style="opacity:1;fill:#ffd305;fill-opacity:1;stroke:none;stroke-width:4.0999999;stroke-linecap:round;stroke-linejoin:miter;stroke-miterlimit:4;stroke-dasharray:none;stroke-opacity:1" />
      <rect
         style="opacity:1;fill:#ffd305;fill-opacity:1;stroke:none;stroke-width:4.0999999;stroke-linecap:round;stroke-linejoin:miter;stroke-miterlimit:4;stroke-dasharray:none;stroke-opacity:1"
         id="rect1033"
         width="16.933332"
         height="16.933332"
         x="43.391666"
         y="258.90002" />
    </g>
    <g
       id="g1053"
       style="fill:#fe0000;fill-opacity:1"
       transform="translate(12.699999,7.4083336)">
      <rect
         style="opacity:1;fill:#fe0000;fill-opacity:1;stroke:none;stroke-width:4.0999999;stroke-linecap:round;stroke-linejoin:miter;stroke-miterlimit:4;stroke-dasharray:none;stroke-opacity:1"
         id="rect1035"
         width="16.933332"
         height="16.933332"
         x="71.966667"
         y="195.40002" />
      <rect
         y="213.39169"
         x="71.966667"
         height="16.933332"
         width="16.933332"
         id="rect1043"
         style="opacity:1;fill:#fe0000;fill-opacity:1;stroke:none;stroke-width:4.0999999;stroke-linecap:round;stroke-linejoin:miter;stroke-miterlimit:4;stroke-dasharray:none;stroke-opacity:1" />
      <rect
         y="177.40836"
         x="71.966667"
         height="16.933332"
         width="16.933332"
         id="rect1045"
         style="opacity:1;fill:#fe0000;fill-opacity:1;stroke:none;stroke-width:4.0999999;stroke-linecap:round;stroke-linejoin:miter;stroke-miterlimit:4;stroke-dasharray:none;stroke-opacity:1" />
      <rect
         style="opacity:1;fill:#fe0000;fill-opacity:1;stroke:none;stroke-width:4.0999999;stroke-linecap:round;stroke-linejoin:miter;stroke-miterlimit:4;stroke-dasharray:none;stroke-opacity:1"
         id="rect1047"
         width="16.933332"
         height="16.933332"
         x="53.975002"
         y="195.40002" />
    </g>
  </g>
</svg>
